{"status": "success", "code": 200, "meta": {"version": "v1.4.2", "timestamp": 1784723940, "pagination": {"current_page": 1, "per_page": 2, "total_pages": 45, "total_records": 90}}, "data": [{"id": "usr_9c8b41f2", "is_active": true, "profile": {"first_name": "Sarah", "last_name": "Johnson", "email": "sarah.johnson@example.com", "avatar_url": "https://example.com"}, "roles": ["administrator", "billing_manager"], "created_at": "2025-11-14T08:23:15Z"}, {"id": "usr_3e4d7a11", "is_active": false, "profile": {"first_name": "Michael", "last_name": "Chen", "email": "m.chen@example.com", "avatar_url": "https://example.com"}, "roles": ["member"], "created_at": "2026-03-22T14:45:00Z"}]}